{
    "result":true,
    "cartItem":[
		{
			"Src": "../resource/img/thomb01.png",
			"Name": "남양 맛있는 우유 900ML",
			"Price": "1000",
			"Code": "1111111",
			"Quantity": 1,
			"Message": "오늘 오후 7시 15분 · 냉장고",
			"Mike": "mike"
		},
		{
			"Src": "../resource/img/thomb01.png",
			"Name": "남양 맛있는 우유 900ML",
			"Price": "1010",
			"Code": "222222",
			"Quantity": 1,
			"Message": "오늘 오후 7시 20분 · 냉장고",
			"Mike": ""
		},
		{
			"Src": "../resource/img/thomb01.png",
			"Name": "남양 맛있는 우유 900ML",
			"Price": "1020",
			"Code": "333333",
			"Quantity": 1,
			"Message": "오늘 오후 6시 15분 · 냉장고",
			"Mike": "mike"
		}
	]
}